…
## A table showing the change in heart rate, temperature, and respiratory rate between the last two measurements for all patients

    # A tibble: 126 × 4
    # Groups:   PatientID [42]
       PatientID variable    change change_direction
       <chr>     <chr>        <dbl> <chr>           
     1 000102    HR_change        8 increased       
     2 000102    Temp_change     NA same            
     3 000102    Resp_change     NA same            
     4 000174    HR_change       10 increased       
     5 000174    Temp_change     NA same            
     6 000174    Resp_change     -4 decreased       
     7 000318    HR_change       -7 decreased       
     8 000318    Temp_change     NA same            
     9 000318    Resp_change     -4 decreased       
    10 000400    HR_change        2 increased       
    # ℹ 116 more rows
